<svg xmlns="http://www.w3.org/2000/svg" viewBox="0 0 12.184 13.245">
  <g id="Groupe_357" data-name="Groupe 357" transform="translate(-162.471 -182.501)">
    <path id="Tracé_124" data-name="Tracé 124" d="M5.27,0A5.271,5.271,0,0,1,7.322,10.127,5.271,5.271,0,0,1,3.219.415,5.238,5.238,0,0,1,5.27,0Zm0,9.336A4.066,4.066,0,1,0,1.2,5.271,4.071,4.071,0,0,0,5.27,9.337Z" transform="translate(162.471 182.5)" fill="#979797"/>
    <path id="Ligne_1" data-name="Ligne 1" d="M1.687,2.289a.6.6,0,0,1-.426-.176L-2.324-1.472a.6.6,0,0,1,0-.851.6.6,0,0,1,.851,0L2.112,1.261a.6.6,0,0,1-.426,1.028Z" transform="translate(172.366 193.457)" fill="#979797"/>
  </g>
</svg>
