<svg xmlns="http://www.w3.org/2000/svg" viewBox="0 0 53.667 60">
  <path id="Tracé_132" data-name="Tracé 132" d="M50.694,177.2c2.565,1.265,5.145,2.5,7.694,3.8,5.295,2.7,10.566,5.448,15.864,8.144a4.349,4.349,0,0,1,2.574,4.222q-.021,13.863,0,27.725a4.327,4.327,0,0,1-2.549,4.179Q63.24,230.916,52.23,236.61a4.528,4.528,0,0,1-4.46,0q-11.116-5.756-22.257-11.46a4.031,4.031,0,0,1-2.347-3.818q-.015-14.126,0-28.252a4.032,4.032,0,0,1,2.35-3.816q11.213-5.76,22.423-11.522c.429-.22.9-.366,1.347-.546Zm22.9,13.925c-.131-.081-.178-.115-.23-.142-7.265-3.735-14.541-7.451-21.786-11.226a3.146,3.146,0,0,0-3.223.033c-7.28,3.784-14.586,7.52-21.886,11.265a2.163,2.163,0,0,0-1.25,2.126q.02,14.039,0,28.077a2.2,2.2,0,0,0,1.314,2.145q11.111,5.694,22.2,11.421a2.536,2.536,0,0,0,2.544-.008q10.99-5.681,22.006-11.311a2.464,2.464,0,0,0,1.492-2.458c-.029-9.164-.019-18.327-.021-27.491v-.722c-.317.154-.54.256-.758.368q-11.19,5.73-22.382,11.453a.934.934,0,0,0-.6.973q.029,11.869.01,23.74a3.117,3.117,0,0,1-.088.807.985.985,0,0,1-1.882-.007,3.11,3.11,0,0,1-.085-.807q-.006-11.9.008-23.8a.858.858,0,0,0-.55-.892q-9.134-4.685-18.252-9.4c-.9-.462-1.158-.961-.828-1.577s.871-.677,1.772-.212q9.149,4.711,18.291,9.436a1.114,1.114,0,0,0,1.173.012q8.68-4.478,17.383-8.915c1.854-.949,3.706-1.9,5.63-2.89" transform="translate(-23.159 -177.199)" fill="#979797"/>
</svg>
