<svg id="Groupe_450" data-name="Groupe 450" xmlns="http://www.w3.org/2000/svg" xmlns:xlink="http://www.w3.org/1999/xlink" width="50.082" height="50" viewBox="0 0 50.082 50">
  <defs>
    <clipPath id="clip-path">
      <rect id="Rectangle_139" data-name="Rectangle 139" width="50.082" height="50" fill="#979797"/>
    </clipPath>
  </defs>
  <g id="Groupe_449" data-name="Groupe 449" clip-path="url(#clip-path)">
    <path id="Tracé_1164" data-name="Tracé 1164" d="M17.014,50h-.587c-.149-.061-.294-.134-.447-.182-4.54-1.436-9.074-2.895-13.627-4.287A3.138,3.138,0,0,1,0,43.449V2.578C.57.792,2.024.218,3.831.819c4.134,1.374,8.3,2.65,12.46,3.95a1.438,1.438,0,0,0,.793.011c5.252-1.563,10.5-3.148,15.752-4.706a1.973,1.973,0,0,1,1.085,0Q41,2.284,48.064,4.537a2.526,2.526,0,0,1,2,2.75c0,13.1-.02,26.195.021,39.292a2.643,2.643,0,0,1-3.59,2.623c-4.213-1.4-8.458-2.7-12.7-4.019a1.609,1.609,0,0,0-.884,0q-6.361,1.884-12.711,3.8c-1.068.322-2.126.674-3.189,1.012m.523-9.193v7.207c.166-.039.309-.066.447-.107Q25.039,45.79,32.1,43.682a.54.54,0,0,0,.464-.634q-.016-15.42-.008-30.839V11.67l-.022-1.734V1.924c-.163.04-.3.068-.442.109Q25.057,4.14,18.022,6.24a.6.6,0,0,0-.517.7q.019,15.786.01,31.572v.573Zm16.7-29.228c-.012.276-.024.42-.024.565q0,15.472-.008,30.944a.527.527,0,0,0,.443.608q6.194,1.933,12.379,3.9c.918.29,1.367-.038,1.367-1.007q0-19.652,0-39.3c0-.731-.164-.952-.85-1.168Q41.869,4.325,36.193,2.534c-.642-.2-1.286-.4-1.936-.6V9.869ZM15.848,39.1v-.4q0-15.934.009-31.869c0-.367-.129-.495-.458-.6Q9.229,4.311,3.067,2.356c-.963-.3-1.4.01-1.4,1.006q0,19.625,0,39.249c0,.8.128.975.9,1.221q6.163,1.95,12.328,3.9c.3.095.6.174.935.268V40.838Z" transform="translate(-0.001 0)" fill="#979797"/>
  </g>
</svg>
