<svg id="Groupe_458" data-name="Groupe 458" xmlns="http://www.w3.org/2000/svg" xmlns:xlink="http://www.w3.org/1999/xlink" width="50.084" height="50" viewBox="0 0 50.084 50">
  <defs>
    <clipPath id="clip-path">
      <rect id="Rectangle_142" data-name="Rectangle 142" width="50.084" height="50" fill="#979797"/>
    </clipPath>
  </defs>
  <g id="Groupe_457" data-name="Groupe 457" clip-path="url(#clip-path)">
    <path id="Tracé_1173" data-name="Tracé 1173" d="M172.737,12.911h-.775q-10.059,0-20.119,0a3.221,3.221,0,0,1-.874-.1,1.645,1.645,0,0,1-1.147-1.773,1.672,1.672,0,0,1,1.532-1.456c.208-.014.417-.008.625-.008h20.614l.036-.113c-.644-.542-1.287-1.087-1.934-1.627q-2.9-2.423-5.8-4.844a1.636,1.636,0,0,1-.568-1.824A1.568,1.568,0,0,1,165.682.02,1.837,1.837,0,0,1,167.2.566q3.594,3.014,7.2,6.016c1.28,1.069,2.565,2.132,3.838,3.21a1.7,1.7,0,0,1-.029,2.891q-5.46,4.6-10.91,9.212a1.653,1.653,0,0,1-2.552-2.053,2.385,2.385,0,0,1,.492-.529q3.493-2.971,6.995-5.933c.14-.119.271-.248.511-.468" transform="translate(-128.942 0)" fill="#0461AC"/>
    <path id="Tracé_1174" data-name="Tracé 1174" d="M6.305,208.4H26.99c.156,0,.313,0,.469,0a1.693,1.693,0,0,1,1.754,1.682,1.665,1.665,0,0,1-1.767,1.652q-8.783.007-17.565,0H6.456l-.059.1c.2.171.4.344.6.513q3.538,2.959,7.075,5.918a1.654,1.654,0,0,1,.458,2.107,1.6,1.6,0,0,1-1.849.824,2.068,2.068,0,0,1-.77-.406q-5.61-4.665-11.2-9.351a1.66,1.66,0,0,1-.006-2.723q5.477-4.621,10.951-9.245a1.663,1.663,0,1,1,2.134,2.527q-3.519,2.981-7.035,5.966c-.125.106-.239.225-.452.427" transform="translate(0 -171.259)" fill="#0461AC"/>
    <path id="Tracé_1175" data-name="Tracé 1175" d="M66.831,68.712c.972,0,1.945-.007,2.917,0a1.641,1.641,0,0,1,1.746,1.661,1.664,1.664,0,0,1-1.751,1.67q-2.969.018-5.938,0a1.667,1.667,0,1,1,0-3.331c1.007-.009,2.014,0,3.021,0" transform="translate(-53.415 -59.138)" fill="#0461AC"/>
    <path id="Tracé_1176" data-name="Tracé 1176" d="M234.469,269.926c-.99,0-1.979.007-2.969,0a1.632,1.632,0,0,1-1.746-1.659,1.655,1.655,0,0,1,1.749-1.672q2.969-.02,5.938,0a1.668,1.668,0,1,1,0,3.332h-2.969" transform="translate(-197.749 -229.448)" fill="#0461AC"/>
    <path id="Tracé_1177" data-name="Tracé 1177" d="M3.05,68.715c.4,0,.8-.008,1.2,0a1.668,1.668,0,0,1,1.692,1.568,1.638,1.638,0,0,1-1.513,1.741,22.327,22.327,0,0,1-2.812,0A1.626,1.626,0,0,1,.107,70.284,1.668,1.668,0,0,1,1.8,68.717c.417-.009.834,0,1.251,0" transform="translate(-0.09 -59.141)" fill="#0461AC"/>
    <path id="Tracé_1178" data-name="Tracé 1178" d="M320.4,270.055c-.434,0-.869.014-1.3,0a1.653,1.653,0,0,1-1.581-1.458,1.553,1.553,0,0,1,1.252-1.777,17.446,17.446,0,0,1,3.316,0,1.545,1.545,0,0,1,1.256,1.726,1.664,1.664,0,0,1-1.587,1.51c-.451.018-.9,0-1.355,0" transform="translate(-273.275 -229.58)" fill="#0461AC"/>
  </g>
</svg>
