<svg xmlns="http://www.w3.org/2000/svg" width="53.527" height="50" viewBox="0 0 53.527 50">
  <g id="Groupe_454" data-name="Groupe 454" transform="translate(-104.523 -595.032)">
    <path id="Tracé_135" data-name="Tracé 135" d="M32.356,460.005l3.061-2.261a21.022,21.022,0,0,0,14.69,8.464,20.586,20.586,0,0,0,13.806-3.224,21.139,21.139,0,0,0-13.564-38.813,20.826,20.826,0,0,0-18.015,14.8l1.808-1.16,2.169,3.207c-1.329.889-2.606,1.745-3.885,2.6-.649.433-1.288.884-1.956,1.286a1.95,1.95,0,0,1-2.711-.564c-1.265-1.851-2.492-3.727-3.734-5.593a1.123,1.123,0,0,1-.076-.2l3.166-2.139,1.279,1.858c2.547-7.843,7.533-13.368,15.16-16.355a24.253,24.253,0,0,1,15.781-.683,24.971,24.971,0,1,1-26.979,38.787" transform="translate(80.574 174.812)" fill="#0461AC"/>
    <path id="Tracé_136" data-name="Tracé 136" d="M59.633,449.437l-2.819,2.814c-.067-.059-.19-.154-.3-.262-1.744-1.742-3.48-3.492-5.234-5.223a2.377,2.377,0,0,1-.758-1.813c.021-4.188.01-8.376.01-12.564v-.63H54.38v.66c0,3.807.006,7.614-.008,11.421a1.188,1.188,0,0,0,.395.939c1.461,1.43,2.9,2.881,4.356,4.316a3.049,3.049,0,0,0,.51.342" transform="translate(80.574 174.812)" fill="#0461AC"/>
  </g>
</svg>
